{
  "formatVersion": 1,
  "database": {
    "version": 2,
    "identityHash": "d134d8e8ef925174655c5d0eb096f025",
    "entities": [
      {
        "tableName": "Event",
        "createSql": "CREATE TABLE IF NOT EXISTS `${TABLE_NAME}` (`eventId` INTEGER PRIMARY KEY AUTOINCREMENT NOT NULL, `title` TEXT, `subtitle` TEXT, `details` TEXT, `date` INTEGER, `locationName` TEXT, `locationURL` TEXT, `tags` TEXT, `imageURL` TEXT, `category` TEXT, `eventURL` TEXT, `favorite` INTEGER NOT NULL, `providerName` TEXT, `providerId` TEXT, `providerCategory` TEXT)",
        "fields": [
          {
            "fieldPath": "eventId",
            "columnName": "eventId",
            "affinity": "INTEGER",
            "notNull": true
          },
          {
            "fieldPath": "title",
            "columnName": "title",
            "affinity": "TEXT",
            "notNull": false
          },
          {
            "fieldPath": "subtitle",
            "columnName": "subtitle",
            "affinity": "TEXT",
            "notNull": false
          },
          {
            "fieldPath": "details",
            "columnName": "details",
            "affinity": "TEXT",
            "notNull": false
          },
          {
            "fieldPath": "date",
            "columnName": "date",
            "affinity": "INTEGER",
            "notNull": false
          },
          {
            "fieldPath": "locationName",
            "columnName": "locationName",
            "affinity": "TEXT",
            "notNull": false
          },
          {
            "fieldPath": "locationURL",
            "columnName": "locationURL",
            "affinity": "TEXT",
            "notNull": false
          },
          {
            "fieldPath": "tags",
            "columnName": "tags",
            "affinity": "TEXT",
            "notNull": false
          },
          {
            "fieldPath": "imageURL",
            "columnName": "imageURL",
            "affinity": "TEXT",
            "notNull": false
          },
          {
            "fieldPath": "category",
            "columnName": "category",
            "affinity": "TEXT",
            "notNull": false
          },
          {
            "fieldPath": "eventURL",
            "columnName": "eventURL",
            "affinity": "TEXT",
            "notNull": false
          },
          {
            "fieldPath": "favorite",
            "columnName": "favorite",
            "affinity": "INTEGER",
            "notNull": true
          },
          {
            "fieldPath": "providerName",
            "columnName": "providerName",
            "affinity": "TEXT",
            "notNull": false
          },
          {
            "fieldPath": "providerId",
            "columnName": "providerId",
            "affinity": "TEXT",
            "notNull": false
          },
          {
            "fieldPath": "providerCategory",
            "columnName": "providerCategory",
            "affinity": "TEXT",
            "notNull": false
          }
        ],
        "primaryKey": {
          "columnNames": [
            "eventId"
          ],
          "autoGenerate": true
        },
        "indices": [],
        "foreignKeys": []
      },
      {
        "tableName": "Downloader",
        "createSql": "CREATE TABLE IF NOT EXISTS `${TABLE_NAME}` (`downloaderId` INTEGER PRIMARY KEY AUTOINCREMENT NOT NULL, `title` TEXT, `progress` INTEGER NOT NULL, `running` INTEGER NOT NULL, `lastUpdate` INTEGER, `result` TEXT, `scraperType` TEXT)",
        "fields": [
          {
            "fieldPath": "downloaderId",
            "columnName": "downloaderId",
            "affinity": "INTEGER",
            "notNull": true
          },
          {
            "fieldPath": "title",
            "columnName": "title",
            "affinity": "TEXT",
            "notNull": false
          },
          {
            "fieldPath": "progress",
            "columnName": "progress",
            "affinity": "INTEGER",
            "notNull": true
          },
          {
            "fieldPath": "running",
            "columnName": "running",
            "affinity": "INTEGER",
            "notNull": true
          },
          {
            "fieldPath": "lastUpdate",
            "columnName": "lastUpdate",
            "affinity": "INTEGER",
            "notNull": false
          },
          {
            "fieldPath": "result",
            "columnName": "result",
            "affinity": "TEXT",
            "notNull": false
          },
          {
            "fieldPath": "scraperType",
            "columnName": "scraperType",
            "affinity": "TEXT",
            "notNull": false
          }
        ],
        "primaryKey": {
          "columnNames": [
            "downloaderId"
          ],
          "autoGenerate": true
        },
        "indices": [],
        "foreignKeys": []
      }
    ],
    "setupQueries": [
      "CREATE TABLE IF NOT EXISTS room_master_table (id INTEGER PRIMARY KEY,identity_hash TEXT)",
      "INSERT OR REPLACE INTO room_master_table (id,identity_hash) VALUES(42, \"d134d8e8ef925174655c5d0eb096f025\")"
    ]
  }
}